<svg xmlns="http://www.w3.org/2000/svg" xmlns:xlink="http://www.w3.org/1999/xlink" preserveAspectRatio="xMidYMid" width="42.969" height="44" viewBox="0 0 42.969 44">
  <defs>
    <style>
      .cls-1 {
        fill: #fff;
        fill-rule: evenodd;
      }
    </style>
  </defs>
  <path d="M-0.003,44.012 L-0.003,15.224 L21.629,0.003 L42.983,15.229 L42.983,44.012 L-0.003,44.012 ZM40.549,16.460 L21.619,2.962 L2.430,16.464 L2.430,41.606 L40.549,41.606 L40.549,16.460 ZM29.600,32.703 L13.379,32.703 L13.379,30.297 L29.600,30.297 L29.600,32.703 Z" class="cls-1"/>
</svg>
